…
``` r
count_groups(fev, c("sex", "smoke", "age"))
```

    ## `summarise()` has grouped output by 'sex', 'smoke'. You can override using the
    ## `.groups` argument.

    ## # A tibble: 51 × 4
    ## # Groups:   sex, smoke [4]
    ##    sex    smoke   age     n
    ##    <chr>  <chr> <int> <int>
    ##  1 female no        3     1
    ##  2 female no        4     6
    ##  3 female no        5    14
    ##  4 female no        6    15
    ##  5 female no        7    29
    ##  6 female no        8    46
    ##  7 female no        9    44
    ##  8 female no       10    30
    ##  9 female no       11    39
    ## 10 female no       12    25
    ## # ℹ 41 more rows
…
